{
  "project_info": {
    "project_number": "181572164800",
    "firebase_url": "https://fir-f9a91-default-rtdb.europe-west1.firebasedatabase.app",
    "project_id": "fir-f9a91",
    "storage_bucket": "fir-f9a91.appspot.com"
  },
  "client": [
    {
      "client_info": {
        "mobilesdk_app_id": "1:181572164800:android:e73a295aa03a52c5576125",
        "android_client_info": {
          "package_name": "com.example.firebase"
        }
      },
      "oauth_client": [],
      "api_key": [
        {
          "current_key": "AIzaSyC3O79446TVTaufCsSlheSnBXlsruwvj3Y"
        }
      ],
      "services": {
        "appinvite_service": {
          "other_platform_oauth_client": []
        }
      }
    }
  ],
  "configuration_version": "1"
}